Property|Hydrogen|Methane|Ethane|Ethylene|Propane|Propylene|Butane|Isobutane|Butylenes|C5Plus|CO|CO2|N2|OthInerts|Inerts
Bbl/MT|18.65|7.8099999|7.4499998|7.3800001|7.2600002|7.1799998|7.1599998|7.1399999|7.0799999|7.0999999|1.58||||
BTU/g|113.7|47.400002|45|44.700001|43.900002|43.400002|43.299999|43.299999|43.299999|43||0|0|0|
BTU/lb|51600|21500|20420|20290|19930|19690|19670|19610|19422|19500|4345|0|0|0|
BTU/SCF|271.89999|906.5|1619.6|1497|2316|2184.3|3011.3999|3002.2|2871.1001|3704.7|320.60001|0|0|0|0
BTU/SCF(CEI)|273|911|1631|1489|2372|2221|3081|3069|3081|4131|321|0|0|0|0
g/SCF|2.4000001|19.219999|36.23|33.290001|53.98|51.150002|71.220001|70.940002|71.220001|96.089996|33.639999|52.950001|||
gC/BTU|0|1.5799999E-2|0.0177|1.9099999E-2|0.0186|0.0197|1.9099999E-2|1.9099999E-2|1.9099999E-2|1.9400001E-2|0.0449||||
gC/SCF|0|14.387|28.943001|28.504999|44.106998|43.799999|58.865002|58.632|58.865002|80.142998|14.422|14.438|||13
kg/m3(FOE)|337.29999|805.20001|844.5|852.40002|866|876.29999|877.90002|880.59998|888.79999|885.79999|3973.7||||
Mass%C|0|74.900002|79.900002|85.599998|81.699997|85.599998|82.699997|82.699997|82.699997|83.400002|42.900002|27.299999|0||
MJ/nm3|10.1|33.799999|60.299999|55.799999|86.300003|81.400002|112.2|111.8|107|138|11.9||||
molC/molGas|0|1|2|2|3|3|4|4|4|5|1|1|0|0|
MolWt|2.016|16.042999|30.069|28.054001|44.096001|42.080002|58.123001|58.123001|56.099998|72.099998|28.01|44.009998|28|50|
