FactorSet|MultGroup|MinMultiplicity|MaxMultiplicity
2002    |ALKY    |1.000|1.400
2002    |ASE     |1.000|1.300
2002    |ASP     |1.000|1.300
2002    |BZC     |1.000|1.300
2002    |C3S     |1.000|1.300
2002    |C4ISOM  |1.000|1.400
2002    |C5ISOM  |1.000|1.400
2002    |CALCIN  |1.000|1.300
2002    |CDU     |1.000|1.500
2002    |CDWISO  |1.000|1.500
2002    |COK     |1.000|1.500
2002    |DESAL   |1.000|1.300
2002    |DHEP    |1.000|1.300
2002    |DHYTA   |1.000|1.400
2002    |DHYTB   |1.000|1.400
2002    |DHYTC   |1.000|1.400
2002    |DIB     |1.000|1.300
2002    |DIH     |1.000|1.300
2002    |DIM     |1.000|1.400
2002    |DIP     |1.000|1.300
2002    |FCC     |1.000|1.500
2002    |FCCS    |1.000|1.300
2002    |H2PURE  |1.000|1.400
2002    |HYCA    |1.000|1.500
2002    |HYCB    |1.000|1.500
2002    |HYG     |1.000|1.400
2002    |KHYTA   |1.000|1.400
2002    |KHYTB   |1.000|1.400
2002    |LHYC    |1.000|1.500
2002    |LHYFT   |1.000|1.500
2002    |MTBE    |1.000|1.400
2002    |NHYTA   |1.000|1.400
2002    |NHYTB   |1.000|1.400
2002    |NHYTC   |1.000|1.400
2002    |POLY    |1.000|1.400
2002    |PXYL    |1.000|1.300
2002    |REF     |1.000|1.500
2002    |REFS    |1.000|1.300
2002    |RERUN   |1.000|1.500
2002    |RHYT    |1.000|1.400
2002    |SDA     |1.000|1.400
2002    |SDWAX   |1.000|1.500
2002    |SHYT    |1.000|1.400
2002    |SOLVEX  |1.000|1.500
2002    |SRU     |1.000|1.400
2002    |TCR     |1.000|1.500
2002    |TOLC    |1.000|1.300
2002    |TRU     |1.000|1.400
2002    |VACA    |1.000|1.500
2002    |VACB    |1.000|1.500
2002    |VACC    |1.000|1.500
2002    |VBR     |1.000|1.500
2002    |VHYT    |1.000|1.400
2002    |WACID   |1.000|1.500
2002    |WDOIL   |1.000|1.500
2002    |WHYFT   |1.000|1.500
2002    |XYISOM  |1.000|1.300
2002    |XYLC    |1.000|1.300
2002    |XYLS    |1.000|1.300
2004    |ALKY    |1.000|1.400
2004    |ASE     |1.000|1.300
2004    |ASP     |1.000|1.300
2004    |BZC     |1.000|1.300
2004    |C3S     |1.000|1.300
2004    |C4ISOM  |1.000|1.400
2004    |C5ISOM  |1.000|1.400
2004    |CALCIN  |1.000|1.300
2004    |CDU     |1.000|1.500
2004    |CDWISO  |1.000|1.500
2004    |COK     |1.000|1.500
2004    |DESAL   |1.000|1.300
2004    |DHEP    |1.000|1.300
2004    |DHYTA   |1.000|1.400
2004    |DHYTB   |1.000|1.400
2004    |DHYTC   |1.000|1.400
2004    |DIB     |1.000|1.300
2004    |DIH     |1.000|1.300
2004    |DIM     |1.000|1.400
2004    |DIP     |1.000|1.300
2004    |FCC     |1.000|1.500
2004    |FCCS    |1.000|1.300
2004    |H2PURE  |1.000|1.400
2004    |HYCA    |1.000|1.500
2004    |HYCB    |1.000|1.500
2004    |HYG     |1.000|1.400
2004    |KHYTA   |1.000|1.400
2004    |KHYTB   |1.000|1.400
2004    |LHYC    |1.000|1.500
2004    |LHYFT   |1.000|1.500
2004    |MTBE    |1.000|1.400
2004    |NHYTA   |1.000|1.400
2004    |NHYTB   |1.000|1.400
2004    |NHYTC   |1.000|1.400
2004    |POLY    |1.000|1.400
2004    |PXYL    |1.000|1.300
2004    |REF     |1.000|1.500
2004    |REFS    |1.000|1.300
2004    |RERUN   |1.000|1.500
2004    |RHYT    |1.000|1.400
2004    |SDA     |1.000|1.400
2004    |SDWAX   |1.000|1.500
2004    |SHYT    |1.000|1.400
2004    |SOLVEX  |1.000|1.500
2004    |SRU     |1.000|1.400
2004    |TCR     |1.000|1.500
2004    |TOLC    |1.000|1.300
2004    |TRU     |1.000|1.400
2004    |VACA    |1.000|1.500
2004    |VACB    |1.000|1.500
2004    |VACC    |1.000|1.500
2004    |VBR     |1.000|1.500
2004    |VHYT    |1.000|1.400
2004    |WACID   |1.000|1.500
2004    |WDOIL   |1.000|1.500
2004    |WHYFT   |1.000|1.500
2004    |XYISOM  |1.000|1.300
2004    |XYLC    |1.000|1.300
2004    |XYLS    |1.000|1.300
