"ProcessID"|"Property"|"USDescription"|"USDecPlaces"|"MetDescription"|"MetDecPlaces"|"USUOM"|"MetricUOM"|"CustomGroup"|"FormulaSymbol"|"SortKey"|"USDescriptionRussian"|"MetDescriptionRussian"
"ALKY    "|"FeedC3Olefin"|"Propylene, vol %"|"1"|"Propylene, vol %"|"1"|""|""|"0"|"A"|"24010"|"Средний состав олефинового сырья, % об. Олефинов - Пропилен"|"Средний состав олефинового сырья, % об. Олефинов - Пропилен"
"ALKY    "|"FeedC4Olefin"|"Butylene, vol %"|"1"|"Butylene, vol %"|"1"|""|""|"0"|"B"|"24011"|"Средний состав олефинового сырья, % об. Олефинов - Бутилен"|"Средний состав олефинового сырья, % об. Олефинов - Бутилен"
"ALKY    "|"FeedC5Olefin"|"Pentene, vol %"|"1"|"Pentene, vol %"|"1"|""|""|"0"|"C"|"24012"|"Средний состав олефинового сырья, % об. Олефинов - Пентен"|"Средний состав олефинового сырья, % об. Олефинов - Пентен"
"CDU     "|"BtmProdPcnt"|"Atmospheric Bottoms Product, vol % of Feed"|"1"|"Atmospheric Bottoms Product, vol % of Feed"|"1"|""|""|"0"|"B"|"11040"|"Кубовый продукт атмосф. колонны, % об. от сырья"|"Кубовый продукт атмосф. колонны, % об. от сырья"
"CDU     "|"BtmTBP"|"TBP Cutpoint for Bottoms, °F"|"0"|"TBP Cutpoint for Bottoms, °C"|"0"|"TF"|"TC"|"1"|""|""|""|""
"CDU     "|"CashOpex"|"Operating Expenses, k CurrencyCode"|"1"|"Operating Expenses, k CurrencyCode"|"1"|""|""|"1"|""|""|""|""
"CDU     "|"EnergyCons"|"Total Energy Consumption, MBtu"|"0"|"Total Energy Consumption, GJ"|"0"|"MBTU"|"GJ"|"1"|""|""|""|""
"CDU     "|"FeedGravity"|"Gravity, °API"|"1"|"Density, kg/m3"|"0"|"API"|"KGM3"|"0"|"A"|"11010"|"Удельный вес, °API"|"Плотность, кг/м³"
"CDU     "|"FurnInTemp"|"Furnace Inlet Temperature, °F"|"0"|"Furnace Inlet Temperature, °C"|"1"|"TF"|"TC"|"1"|""|""|""|""
"CDU     "|"FurnOutTemp"|"Furnace Outlet Temperature, °F"|"0"|"Furnace Outlet Temperature, °C"|"1"|"TF"|"TC"|"1"|""|""|""|""
"CDU     "|"FZPress"|"Flash Zone Pressure, mm Hg absolute"|"1"|"Flash Zone Pressure, mm Hg absolute"|"1"|""|""|"0"|"D"|"11030"|"Давление в зоне питания, мм рт. ст. абс."|"Давление в зоне питания, мм рт. ст. абс."
"CDU     "|"FZTemp"|"Flash Zone Temperature, °F"|"0"|"Flash Zone Temperature, °C"|"0"|"TF"|"TC"|"0"|"C"|"11020"|"Температура в зоне питания, °F"|"Температура в зоне питания, °C"
"CDU     "|"PostPerShift"|"Posts per Shift"|"1"|"Posts per Shift"|"1"|""|""|"1"|""|""|""|""
"CDU     "|"PTNArea"|"Crude Preheat Train Network Surface Area, ft²"|"0"|"Crude Preheat Train Network Surface Area, m²"|"0"|"SQFT"|"M2"|"1"|""|""|""|""
"CDU     "|"StackTemp"|"Stack Gas Exit Temp, °F"|"0"|"Stack Gas Exit Temp, °C"|"1"|"TF"|"TC"|"1"|""|""|""|""
"CDU     "|"TotWHr"|"Total Unit Personnel Hours"|"0"|"Total Unit Personnel Hours"|"0"|""|""|"1"|""|""|""|""
"COK     "|"FeedConCarbon"|"ConCarbon, %"|"1"|"ConCarbon, %"|"1"|""|""|"0"|"B"|"15020"|"Коксуемость по Конрадсону, % масс."|"Коксуемость по Конрадсону, % масс."
"COK     "|"FeedGravity"|"Gravity, °API"|"1"|"Density, kg/m3"|"0"|"API"|"KGM3"|"0"|"A"|"15010"|"Удельный вес, °API"|"Плотность, кг/м³"
"FCC     "|"CashOpex"|"Operating Expenses, k CurrencyCode"|"1"|"Operating Expenses, k CurrencyCode"|"1"|""|""|"1"|""|""|""|""
"FCC     "|"CatOilRatio"|"Catalyst/Oil Ratio "|"1"|"Catalyst/Oil Ratio "|"1"|""|""|"0"|""|"16040"|""|""
"FCC     "|"Coke"|"Coke, wt %"|"1"|"Coke, wt %"|"1"|""|""|"0"|"A"|"16010"|"Выход кокса, % масс"|"Выход кокса, % масс"
"FCC     "|"Conv"|"Conversion, %"|"1"|"Conversion, %"|"1"|""|""|"200"|"B"|"16020"|"Конверсия, % об."|"Конверсия (выход продукта ниже 221°С по ИТК), % об."
"FCC     "|"EnergyCons"|"Total Energy Consumption, MBtu"|"0"|"Total Energy Consumption, GJ"|"0"|"MBTU"|"GJ"|"1"|""|""|""|""
"FCC     "|"FCCPowerBHP"|"Power Recovery Train, shaft bhp"|"0"|"Power Recovery Train, shaft bhp"|"0"|""|""|"0"|""|"16199"|""|""
"FCC     "|"FeedAniline"|"Aniline Point, °F"|"0"|"Aniline Point, °C"|"0"|"TF"|"TC"|"0"|"E"|"16120"|"Анилиновая точка, °F"|"Анилиновая точка, °C"
"FCC     "|"FeedASTM10"|"ASTM D-1160 10% Distillation Point, °F"|"0"|"ASTM D-1160 10% Distillation Point, °C"|"0"|"TF"|"TC"|"0"|"C"|"16100"|"10% сырья перегоняется при темп. …, °F  (по ASTM D-1160)"|"10% сырья перегоняется при темп. …, °C  (по ASTM D-1160)"
"FCC     "|"FeedASTM30"|"ASTM D-1160 30% Distillation Point, °F"|"0"|"ASTM D-1160 30% Distillation Point, °C"|"0"|"TF"|"TC"|"0"|""|"16103"|""|""
"FCC     "|"FeedASTM50"|"ASTM D-1160 50% Distillation Point, °F"|"0"|"ASTM D-1160 50% Distillation Point, °C"|"0"|"TF"|"TC"|"0"|""|"16105"|""|""
"FCC     "|"FeedASTM70"|"ASTM D-1160 70% Distillation Point, °F"|"0"|"ASTM D-1160 70% Distillation Point, °C"|"0"|"TF"|"TC"|"0"|""|"16107"|""|""
"FCC     "|"FeedASTM90"|"ASTM D-1160 90% Distillation Point, °F"|"0"|"ASTM D-1160 90% Distillation Point, °C"|"0"|"TF"|"TC"|"0"|"D"|"16110"|"90% сырья перегоняется при темп. …, °F  (по ASTM D-1160)"|"90% сырья перегоняется при темп. …, °C  (по ASTM D-1160)"
"FCC     "|"FeedConCarbon"|"Concarbon, wt %"|"2"|"Concarbon, wt %"|"2"|""|""|"0"|""|"16090"|""|""
"FCC     "|"FeedGravity"|"Feed Gravity, °API"|"1"|"Feed Density, kg/m3"|"0"|"API"|"KGM3"|"0"|""|"16070"|""|""
"FCC     "|"FeedHAGO"|"Hydrotreated Atmospheric Gas Oil Feed, vol%"|"1"|"Hydrotreated Atmospheric Gas Oil Feed, vol%"|"1"|""|""|"200"|""|"16062"|""|""
"FCC     "|"FeedHARC"|"Hydrotreated Atmospheric Reduced Crude Feed, vol%"|"1"|"Hydrotreated Atmospheric Reduced Crude Feed, vol%"|"1"|""|""|"200"|""|"16066"|""|""
"FCC     "|"FeedHCGO"|"Hydrotreated Cracked Heavy Gas Oil Feed, vol%"|"1"|"Hydrotreated Cracked Heavy Gas Oil Feed, vol%"|"1"|""|""|"200"|""|"16065"|""|""
"FCC     "|"FeedHCrackedGO"|"Hydrotreated Cracked Distillate/Light Gas Oils  Feed, vol%"|"1"|"Hydrotreated Cracked Distillate/Light Gas Oils  Feed, vol%"|"1"|""|""|"200"|""|"16061"|""|""
"FCC     "|"FeedHDAO"|"Hydrotreated Deasphalted Oil Feed, vol%"|"1"|"Hydrotreated Deasphalted Oil Feed, vol%"|"1"|""|""|"200"|""|"16064"|""|""
"FCC     "|"FeedHLube"|"Hydrotreated Lube Extracts Feed, vol%"|"1"|"Hydrotreated Lube Extracts Feed, vol%"|"1"|""|""|"200"|""|"16068"|""|""
"FCC     "|"FeedHVGO"|"Hydrotreated Vacuum Gas Oil/Hydrocracker Residuum Feed, vol%"|"1"|"Hydrotreated Vacuum Gas Oil/Hydrocracker Residuum Feed, vol%"|"1"|""|""|"200"|""|"16063"|""|""
"FCC     "|"FeedHVGOSulfur"|"Sulfur in Hydrotreated Vacuum Gas Oil, wt %"|"2"|"Sulfur in Hydrotreated Vacuum Gas Oil, wt %"|"2"|""|""|"200"|""|"16142"|""|""
"FCC     "|"FeedHVirginGO"|"Hydrotreated Virgin Distillate/Light Gas Oils Feed, vol%"|"1"|"Hydrotreated Virgin Distillate/Light Gas Oils Feed, vol%"|"1"|""|""|"200"|""|"16060"|""|""
"FCC     "|"FeedHVR"|"Hydrotreated Vacuum Residuum Feed, vol%"|"1"|"Hydrotreated Vacuum Residuum Feed, vol%"|"1"|""|""|"200"|""|"16067"|""|""
"FCC     "|"FeedHVRSulfur"|"Sulfur in Hydrotreated Vacuum Residual, wt %"|"2"|"Sulfur in Hydrotreated Vacuum Residual, wt %"|"2"|""|""|"200"|""|"16143"|""|""
"FCC     "|"FeedSulfur"|"Feed Sulfur, wt %"|"2"|"Feed Sulfur, wt %"|"2"|""|""|"0"|""|"16080"|""|""
"FCC     "|"FeedUAGO"|"Unhydrotreated Atmospheric Gas Oil Feed, vol%"|"1"|"Unhydrotreated Atmospheric Gas Oil Feed, vol%"|"1"|""|""|"200"|""|"16052"|""|""
"FCC     "|"FeedUARC"|"Unhydrotreated Atmospheric Reduced Crude Feed, vol%"|"1"|"Unhydrotreated Atmospheric Reduced Crude Feed, vol%"|"1"|""|""|"200"|""|"16056"|""|""
"FCC     "|"FeedUCGO"|"Unhydrotreated Cracked Heavy Gas Oil Feed, vol%"|"1"|"Unhydrotreated Cracked Heavy Gas Oil Feed, vol%"|"1"|""|""|"200"|""|"16055"|""|""
"FCC     "|"FeedUCrackedGO"|"Unhydrotreated Cracked Distillate/Light Gas Oils Feed, vol%"|"1"|"Unhydrotreated Cracked Distillate/Light Gas Oils Feed, vol%"|"1"|""|""|"200"|""|"16051"|""|""
"FCC     "|"FeedUDAO"|"Unhydrotreated Deasphalted Oil Feed, vol%"|"1"|"Unhydrotreated Deasphalted Oil Feed, vol%"|"1"|""|""|"200"|""|"16054"|""|""
"FCC     "|"FeedULube"|"Unhydrotreated Lube Extracts Feed, vol%"|"1"|"Unhydrotreated Lube Extracts Feed, vol%"|"1"|""|""|"200"|""|"16058"|""|""
"FCC     "|"FeedUVGO"|"Unhydrotreated Vacuum Gas Oil Feed, vol%"|"1"|"Unhydrotreated Vacuum Gas Oil Feed, vol%"|"1"|""|""|"200"|""|"16053"|""|""
"FCC     "|"FeedUVGOSulfur"|"Sulfur in Unhydrotreated Vacuum Gas Oil, wt %"|"2"|"Sulfur in Unhydrotreated Vacuum Gas Oil, wt %"|"2"|""|""|"200"|""|"16140"|""|""
"FCC     "|"FeedUVirginGO"|"Unhydrotreated Virgin Distillate/Light Gas Oils Feed, vol%"|"1"|"Unhydrotreated Virgin Distillate/Light Gas Oils Feed, vol%"|"1"|""|""|"200"|""|"16050"|""|""
"FCC     "|"FeedUVR"|"Unhydrotreated Vacuum Residuum Feed, vol%"|"1"|"Unhydrotreated Vacuum Residuum Feed, vol%"|"1"|""|""|"200"|""|"16057"|""|""
"FCC     "|"FeedUVRSulfur"|"Sulfur in Unhydrotreated Vacuum Residual, wt %"|"2"|"Sulfur in Unhydrotreated Vacuum Residual, wt %"|"2"|""|""|"200"|""|"16141"|""|""
"FCC     "|"FurnInTemp"|"Furnace Inlet Temperature, °F"|"0"|"Furnace Inlet Temperature, °C"|"1"|"TF"|"TC"|"1"|""|""|""|""
"FCC     "|"FurnOutTemp"|"Furnace Outlet Temperature, °F"|"0"|"Furnace Outlet Temperature, °C"|"1"|"TF"|"TC"|"1"|""|""|""|""
"FCC     "|"GrossMargin"|"Gross Margin, k CurrencyCode"|"1"|"Gross Margin, k CurrencyCode"|"1"|""|""|"1"|""|""|""|""
"FCC     "|"PostPerShift"|"Posts per Shift"|"1"|"Posts per Shift"|"1"|""|""|"1"|""|""|""|""
"FCC     "|"ProdC3"|"C3, vol % of Fresh Feed"|"1"|"C3, vol % of Fresh Feed"|"1"|""|""|"1"|""|""|""|""
"FCC     "|"ProdDSO"|"Decant/Slurry Oil, vol % of fresh feed"|"1"|"Decant/Slurry Oil, vol % of fresh feed"|"1"|""|""|"0"|""|"16165"|""|""
"FCC     "|"ProdHCO"|"Heavy Cycle Oil, vol % of fresh feed"|"1"|"Heavy Cycle Oil, vol % of fresh feed"|"1"|""|""|"0"|""|"16162"|""|""
"FCC     "|"ProdLCO"|"Light Cycle Oil (430-650 °F TBP), vol % of fresh feed"|"1"|"Light Cycle Oil (220-343 °C TBP), vol % of fresh feed"|"1"|""|""|"0"|""|"16161"|""|""
"FCC     "|"ProdLtGasNap"|"Light Gasoline/Naphtha, vol % of fresh feed"|"1"|"Light Gasoline/Naphtha, vol % of fresh feed"|"1"|""|""|"1"|""|""|""|""
"FCC     "|"RiserTemp"|"Riser Inlet Temperature, °F"|"0"|"Riser Inlet Temperature, °C"|"0"|"TF"|"TC"|"0"|""|"16030"|""|""
"FCC     "|"StackTemp"|"Stack Gas Exit Temp, °F"|"0"|"Stack Gas Exit Temp, °C"|"1"|"TF"|"TC"|"1"|""|""|""|""
"FCC     "|"TotWHr"|"Total Unit Personnel Hours"|"0"|"Total Unit Personnel Hours"|"0"|""|""|"1"|""|""|""|""
"FCC     "|"UOPK"|"Feed UOP-K Factor"|"1"|"Feed UOP-K Factor"|"1"|""|""|"0"|""|"16130"|""|""
"HYC     "|"CashOpex"|"Operating Expenses, k CurrencyCode"|"1"|"Operating Expenses, k CurrencyCode"|"1"|""|""|"1"|""|""|""|""
"HYC     "|"EnergyCons"|"Total Energy Consumption, MBtu"|"0"|"Total Energy Consumption, GJ"|"0"|"MBTU"|"GJ"|"1"|""|""|""|""
"HYC     "|"FeedAGO"|"Atmospheric Gas Oil, vol % Feed"|"1"|"Atmospheric Gas Oil, vol % Feed"|"1"|""|""|"0"|""|"17105"|""|""
"HYC     "|"FeedARC"|"Atmospheric Reduced Crude, vol % Feed"|"1"|"Atmospheric Reduced Crude, vol % Feed"|"1"|""|""|"0"|""|"17109"|""|""
"HYC     "|"FeedCrackedHGO"|"Cracked Heavy Gas Oil (>650 °F), vol % of Feed"|"1"|"Cracked Heavy Gas Oil (>343 °C), vol % of Feed"|"1"|""|""|"0"|"C"|"17020"|"Тяжелый газойль крекинга (>650 °C), % об."|"Тяжелый газойль крекинга (>343 °C), % об."
"HYC     "|"FeedCrackedLGO"|"Cracked Distillate/Light Gas Oil (370-650°F TBP), vol % Feed"|"1"|"Cracked Distillate/Light Gas Oil (188-343°C TBP), vol % Feed"|"1"|""|""|"0"|""|"17103"|""|""
"HYC     "|"FeedDAO"|"Deasphalted Oil, vol % Feed"|"1"|"Deasphalted Oil, vol % Feed"|"1"|""|""|"0"|"E"|"17024"|"Деасфальтизат, % об."|"Деасфальтизат, % об."
"HYC     "|"FeedLubeExtracts"|"Lube Extracts, vol % Feed"|"1"|"Lube Extracts, vol % Feed"|"1"|""|""|"0"|"F"|"17026"|"Экстракты масел, % об."|"Экстракты масел, % об."
"HYC     "|"FeedNap"|"Naphtha (200-370°F TBP), vol % Feed"|"1"|"Naphtha (93-188°C TBP), vol % Feed"|"1"|""|""|"0"|""|"17101"|""|""
"HYC     "|"FeedVACResid"|"Vacuum Residuum, vol % Feed"|"1"|"Vacuum Residuum, vol % Feed"|"1"|""|""|"0"|""|"17110"|""|""
"HYC     "|"FeedVGO"|"Vacuum Gas Oil, vol % of Feed"|"1"|"Vacuum Gas Oil, vol % of Feed"|"1"|""|""|"0"|"D"|"17022"|"Вакуумный газойль, % об."|"Вакуумный газойль, % об."
"HYC     "|"FeedVirginGO"|"Virgin Distillate/Light Gas Oils (370-650°F TBP), vol % Feed"|"1"|"Virgin Distillate/Light Gas Oils (188-343°C TBP), vol % Feed"|"1"|""|""|"0"|""|"17102"|""|""
"HYC     "|"FurnInTemp"|"Furnace Inlet Temperature, °F"|"0"|"Furnace Inlet Temperature, °C"|"1"|"TF"|"TC"|"1"|""|""|""|""
"HYC     "|"FurnOutTemp"|"Furnace Outlet Temperature, °F"|"0"|"Furnace Outlet Temperature, °C"|"1"|"TF"|"TC"|"1"|""|""|""|""
"HYC     "|"GrossMargin"|"Gross Margin, k CurrencyCode"|"1"|"Gross Margin, k CurrencyCode"|"1"|""|""|"1"|""|""|""|""
"HYC     "|"H2Cons"|"Hydrogen Consumption, SCF/bbl"|"1"|"Hydrogen Consumption, nm3/bbl"|"1"|"SCF/B"|"NM3/B"|"0"|"B"|"17040"|"Общее потребление водорода, SCF/b свежего сырья"|"Общее потребление водорода, н.м³/м³ свежего сырья"
"HYC     "|"PostPerShift"|"Posts per Shift"|"1"|"Posts per Shift"|"1"|""|""|"1"|""|""|""|""
"HYC     "|"ProdBal"|"Balance of Products (>1050 °F), vol %"|"1"|"Balance of Products (>566 °C), vol %"|"1"|""|""|"0"|"K"|"17036"|"Тяжелые остатки (>566 °C), % об."|"Тяжелые остатки (>566 °C), % об."
"HYC     "|"ProdC3"|"C3, vol %"|"1"|"C3, vol %"|"1"|""|""|"1"|""|""|""|""
"HYC     "|"ProdDiesel"|"Diesel (500-650 °F), vol %"|"1"|"Diesel (260-343 °C), vol %"|"1"|""|""|"0"|"I"|"17032"|"Дизельное топливо, % об."|"Дизельное топливо, % об."
"HYC     "|"ProdHGO"|"Heavy Gas Oil (650-1050 °F), vol %"|"1"|"Heavy Gas Oil (343-566 °C), vol %"|"1"|""|""|"0"|"J"|"17034"|"Тяжелый газойль (343-566 °C), % об."|"Тяжелый газойль (343-566 °C), % об."
"HYC     "|"ProdHvHycCrk"|"Heavy Hydrocrackate/Naphtha (200-370 °F), vol %"|"1"|"Heavy Hydrocrackate/Naphtha (93-188 °C), vol %"|"1"|""|""|"0"|"H"|"17030"|"Тяжелый бензин гидрокрекинга (93-188 °C), % об."|"Тяжелый бензин гидрокрекинга (93-188 °C), % об."
"HYC     "|"ProdKJet"|"Kerosene/Jet Fuel (370-500 °F), vol %"|"1"|"Kerosene/Jet Fuel (188-260 °C), vol %"|"1"|""|""|"1"|""|""|""|""
"HYC     "|"ProdLtHycCrk"|"Light Hydrocrackate/Naphtha (C5-200 °F), vol %"|"1"|"Light Hydrocrackate/Naphtha (C5-93 °C), vol %"|"1"|""|""|"0"|"G"|"17028"|"Легкий бензин гидрокрекинга (C5-93 °C), % об."|"Легкий бензин гидрокрекинга (C5-93 °C), % об."
"HYC     "|"ReactorPressure"|"Final Reactor Outlet Pressure, psig"|"1"|"Final Reactor OutletPressure, barg"|"1"|"PSIG"|"BARG"|"0"|"A"|"17010"|"Давление на выходе из последнего реактора,  psig"|"Давление на выходе из последнего реактора,  бар изб."
"HYC     "|"StackTemp"|"Stack Gas Exit Temp, °F"|"0"|"Stack Gas Exit Temp, °C"|"1"|"TF"|"TC"|"1"|""|""|""|""
"HYC     "|"TotWHr"|"Total Unit Personnel Hours"|"0"|"Total Unit Personnel Hours"|"0"|""|""|"1"|""|""|""|""
"HYG     "|"CO2RejectType"|"Type of CO2 Rejection"|"0"|"Type of CO2 Rejection"|"0"|""|""|"0"|""|"19030"|""|""
"HYG     "|"FeedH2"|"Hydrogen Content of Feed, vol %"|"1"|"Hydrogen Content of Feed, vol %"|"1"|""|""|"0"|"A"|"19010"|"Содержание водорода в сырье, % об."|"Содержание водорода в сырье, % об."
"HYG     "|"FeedRateGas"|"Average Gas Feed Rate, kSCFD"|"0"|"Average Gas Feed Rate, knm3/d"|"0"|"KSCF"|"KNM3"|"0"|"B"|"19005"|"Средняя производительность по газовому сырью, kSCF/день"|"Средняя производительность по газовому сырью, тыс. н.м3/день"
"HYG     "|"H2Loss"|"Hydrogen Loss, % of H2 in Final Shift Converter Outlet"|"1"|"Hydrogen Loss, % of H2 in Final Shift Converter Outlet"|"1"|""|""|"0"|""|"19020"|""|""
"LHYFT   "|"BRS_H2Cons"|"Hydrogen Consumption on Brightstocks, SCF/bbl"|"1"|"Hydrogen Consumption on Brightstocks, nm3/bbl"|"1"|"SCF/B"|"NM3/B"|"0"|"D"|"54526"|""|""
"LHYFT   "|"HN_H2Cons"|"Hydrogen Consumption on Heavy Neutrals, SCF/bbl"|"1"|"Hydrogen Consumption on Heavy Neutrals, nm3/bbl"|"1"|"SCF/B"|"NM3/B"|"0"|"C"|"54524"|""|""
"LHYFT   "|"LN_H2Cons"|"Hydrogen Consumption on Light Neutrals, SCF/bbl"|"1"|"Hydrogen Consumption on Light Neutrals, nm3/bbl"|"1"|"SCF/B"|"NM3/B"|"0"|"A"|"54520"|""|""
"LHYFT   "|"MN_H2Cons"|"Hydrogen Consumption on Mild Neutrals, SCF/bbl"|"1"|"Hydrogen Consumption on Mild Neutrals, nm3/bbl"|"1"|"SCF/B"|"NM3/B"|"0"|"B"|"54522"|""|""
"LHYFT   "|"ReactorPressure"|"Reactor Outlet Pressure, psig"|"1"|"Reactor Outlet Pressure, barg"|"1"|"PSIG"|"BARG"|"0"|"E"|"54510"|""|""
"NHYT    "|"FeedCrack"|"Cracked Stock, vol %"|"1"|"Cracked Stock, vol %"|"1"|""|""|"0"|"A"|"27010"|"Крекированное сырье, % об."|"Крекированное сырье, % об."
"PXYL    "|"CashOpex"|"Operating Expenses, k CurrencyCode"|"1"|"Operating Expenses, k CurrencyCode"|"1"|""|""|"1"|""|""|""|""
"PXYL    "|"EnergyCons"|"Total Energy Consumption, MBtu"|"0"|"Total Energy Consumption, GJ"|"0"|"MBTU"|"GJ"|"1"|""|""|""|""
"PXYL    "|"FurnInTemp"|"Furnace Inlet Temperature, °F"|"0"|"Furnace Inlet Temperature, °C"|"1"|"TF"|"TC"|"1"|""|""|""|""
"PXYL    "|"FurnOutTemp"|"Furnace Outlet Temperature, °F"|"0"|"Furnace Outlet Temperature, °C"|"1"|"TF"|"TC"|"1"|""|""|""|""
"PXYL    "|"PostPerShift"|"Posts per Shift"|"1"|"Posts per Shift"|"1"|""|""|"1"|""|""|""|""
"PXYL    "|"StackTemp"|"Stack Gas Exit Temp, °F"|"0"|"Stack Gas Exit Temp, °C"|"1"|"TF"|"TC"|"1"|""|""|""|""
"PXYL    "|"TotWHr"|"Total Unit Personnel Hours"|"0"|"Total Unit Personnel Hours"|"0"|""|""|"1"|""|""|""|""
"REF     "|"CashOpex"|"Operating Expenses, k CurrencyCode"|"1"|"Operating Expenses, k CurrencyCode"|"1"|""|""|"1"|""|""|""|""
"REF     "|"EnergyCons"|"Total Energy Consumption, MBtu"|"0"|"Total Energy Consumption, GJ"|"0"|"MBTU"|"GJ"|"1"|""|""|""|""
"REF     "|"FeedArom"|"Aromatics, vol %"|"1"|"Aromatics, vol %"|"1"|""|""|"0"|"C"|"18032"|"Содержание ароматики, % об."|"Содержание ароматики, % об."
"REF     "|"FeedGravity"|"Gravity, °API"|"1"|"Density, kg/m3"|"0"|"API"|"KGM3"|"0"|"E"|"18010"|"Удельный вес, °API"|"Плотность, кг/м³"
"REF     "|"FeedNap"|"Naphthenes, vol %"|"1"|"Naphthenes, vol %"|"1"|""|""|"0"|"B"|"18030"|"Содержание нафтенов, % об."|"Содержание нафтенов, % об."
"REF     "|"FurnInTemp"|"Furnace Inlet Temperature, °F"|"0"|"Furnace Inlet Temperature, °C"|"1"|"TF"|"TC"|"1"|""|""|""|""
"REF     "|"FurnOutTemp"|"Furnace Outlet Temperature, °F"|"0"|"Furnace Outlet Temperature, °C"|"1"|"TF"|"TC"|"1"|""|""|""|""
"REF     "|"GrossMargin"|"Gross Margin, k CurrencyCode"|"1"|"Gross Margin, k CurrencyCode"|"1"|""|""|"1"|""|""|""|""
"REF     "|"HHCRatio"|"Hydrogen/Hydrocarbon Ratio"|"1"|"Hydrogen/Hydrocarbon Ratio"|"1"|""|""|"1"|""|""|""|""
"REF     "|"MGas"|"Hydrogen Production Rate, SCF/bbl"|"1"|"Hydrogen Production Rate, nm³/bbl"|"1"|"SCF/B"|"NM3/B"|"1"|""|""|""|""
"REF     "|"PostPerShift"|"Posts per Shift"|"1"|"Posts per Shift"|"1"|""|""|"1"|""|""|""|""
"REF     "|"ProdArom"|"Total Product Aromatics, vol%"|"1"|"Total Product Aromatics, vol%"|"1"|""|""|"1"|""|""|""|""
"REF     "|"ProdBenzene"|"Benzene, vol%"|"1"|"Benzene, vol%"|"1"|""|""|"1"|""|""|""|""
"REF     "|"ProdC5"|"C5 + Reformate, vol % or fresh feed"|"1"|"C5 + Reformate, vol % or fresh feed"|"1"|""|""|"1"|""|""|""|""
"REF     "|"ProdRONC"|"RONC"|"1"|"RONC"|"1"|""|""|"0"|"D"|"18020"|"Октановое число по иссл. методу"|"Октановое число по иссл. методу"
"REF     "|"SepPress"|"Separator Drum Pressure, psig"|"1"|"Separator Drum Pressure, barg"|"1"|"PSIG"|"BARG"|"1"|""|""|""|""
"REF     "|"StackOxy"|"Stack Gas Oxygen Content, vol %"|"1"|"Stack Gas Oxygen Content, vol %"|"1"|""|""|"1"|""|""|""|""
"REF     "|"StackTemp"|"Stack Gas Exit Temp, °F"|"0"|"Stack Gas Exit Temp, °C"|"1"|"TF"|"TC"|"1"|""|""|""|""
"REF     "|"SumTempDiff"|"Sum of the Temperature Differentials, °F"|"0"|"Sum of the Temperature Differentials, °C"|"0"|"DTF"|"DTC"|"0"|"A"|"18040"|"Сумма перепадов температур на всех реакторах, °F"|"Сумма перепадов температур на всех реакторах, °C"
"REF     "|"TotWHr"|"Total Unit Personnel Hours"|"0"|"Total Unit Personnel Hours"|"0"|""|""|"1"|""|""|""|""
"RERUN   "|"FeedGravity"|"Gravity, °API"|"1"|"Density, kg/m3"|"0"|"API"|"KGM3"|"0"|"A"|"55510"|""|""
"SDA     "|"SolventRatio"|"Total Solvent-to-Feed Ratio, vol basis"|"1"|"Total Solvent-to-Feed Ratio, vol basis"|"1"|""|""|"0"|"A"|"33010"|"Отношение общего кол-ва растворителя к сырью, % об."|"Отношение общего кол-ва растворителя к сырью, % об."
"SDWAX   "|"BRS_FeedCap"|"Feed Capacity on Brightstocks, b/sd"|"0"|"Feed Capacity on Brightstocks, b/sd"|"0"|""|""|"0"|"J"|"51526"|"Производительность по сырью - Брайтстоки, барр./потокодень"|"Производительность по сырью - Брайтстоки, барр./потокодень"
"SDWAX   "|"BRS_OperPcnt"|"Unit Operation on Brightstocks, %"|"1"|"Unit Operation on Brightstocks, %"|"1"|""|""|"0"|"K"|"51536"|"% работы установки - Брайтстоки"|"% работы установки - Брайтстоки"
"SDWAX   "|"BRS_SolventRatio"|"Solvent-to-Oil Ratio on Brightstocks"|"2"|"Solvent-to-Oil Ratio on Brightstocks"|"2"|""|""|"0"|"L"|"51516"|"Отношение общего кол-ва растворителя к сырью - Брайтстоки, % об."|"Отношение общего кол-ва растворителя к сырью - Брайтстоки, % об."
"SDWAX   "|"HN_FeedCap"|"Feed Capacity on Heavy Neutrals, b/sd"|"0"|"Feed Capacity on Heavy Neutrals, b/sd"|"0"|""|""|"0"|"G"|"51524"|"Производительность по сырью - Высоковязкий дистиллят, барр./потокодень"|"Производительность по сырью - Высоковязкий дистиллят, барр./потокодень"
"SDWAX   "|"HN_OperPcnt"|"Unit Operation on Heavy Neutrals, %"|"1"|"Unit Operation on Heavy Neutrals, %"|"1"|""|""|"0"|"H"|"51534"|"% работы установки - Высоковязкий дистиллят"|"% работы установки - Высоковязкий дистиллят"
"SDWAX   "|"HN_SolventRatio"|"Solvent-to-Oil Ratio on Heavy Neutrals"|"2"|"Solvent-to-Oil Ratio on Heavy Neutrals"|"2"|""|""|"0"|"I"|"51514"|"Отношение общего кол-ва растворителя к сырью - Высоковязкий дистиллят, % об."|"Отношение общего кол-ва растворителя к сырью - Высоковязкий дистиллят, % об."
"SDWAX   "|"LN_FeedCap"|"Feed Capacity on Light Neutrals, b/sd"|"0"|"Feed Capacity on Light Neutrals, b/sd"|"0"|""|""|"0"|"A"|"51520"|"Производительность по сырью - Маловязкий дистиллят, барр./потокодень"|"Производительность по сырью - Маловязкий дистиллят, барр./потокодень"
"SDWAX   "|"LN_OperPcnt"|"Unit Operation on Light Neutrals, %"|"1"|"Unit Operation on Light Neutrals, %"|"1"|""|""|"0"|"B"|"51530"|"% работы установки - Маловязкий дистиллят"|"% работы установки - Маловязкий дистиллят"
"SDWAX   "|"LN_SolventRatio"|"Solvent-to-Oil Ratio on Light Neutrals"|"2"|"Solvent-to-Oil Ratio on Light Neutrals"|"2"|""|""|"0"|"C"|"51510"|"Отношение общего кол-ва растворителя к сырью - Маловязкий дистиллят, % об."|"Отношение общего кол-ва растворителя к сырью - Маловязкий дистиллят, % об."
"SDWAX   "|"MN_FeedCap"|"Feed Capacity on Mild Neutrals, b/sd"|"0"|"Feed Capacity on Mild Neutrals, b/sd"|"0"|""|""|"0"|"D"|"51522"|"Производительность по сырью - Средневязкий дистиллят, барр./потокодень"|"Производительность по сырью - Средневязкий дистиллят, барр./потокодень"
"SDWAX   "|"MN_OperPcnt"|"Unit Operation on Mild Neutrals, %"|"1"|"Unit Operation on Mild Neutrals, %"|"1"|""|""|"0"|"E"|"51532"|"% работы установки - Средневязкий дистиллят"|"% работы установки - Средневязкий дистиллят"
"SDWAX   "|"MN_SolventRatio"|"Solvent-to-Oil Ratio on Mild Neutrals"|"2"|"Solvent-to-Oil Ratio on Mild Neutrals"|"2"|""|""|"0"|"F"|"51512"|"Отношение общего кол-ва растворителя к сырью - Средневязкий дистиллят, % об."|"Отношение общего кол-ва растворителя к сырью - Средневязкий дистиллят, % об."
"SOLVEX  "|"BRS_FeedCap"|"Feed Capacity on Brightstocks, b/sd"|"0"|"Feed Capacity on Brightstocks, b/sd"|"0"|""|""|"0"|"J"|"50526"|"Производительность по сырью - Брайтстоки, барр./потокодень"|"Производительность по сырью - Брайтстоки, барр./потокодень"
"SOLVEX  "|"BRS_OperPcnt"|"Unit Operation on Brightstocks, %"|"1"|"Unit Operation on Brightstocks, %"|"1"|""|""|"0"|"K"|"50536"|"% работы установки - Брайтстоки"|"% работы установки - Брайтстоки"
"SOLVEX  "|"BRS_SolventRatio"|"Solvent-to-Oil Ratio on Brightstocks"|"2"|"Solvent-to-Oil Ratio on Brightstocks"|"2"|""|""|"0"|"L"|"50516"|"Отношение общего кол-ва растворителя к сырью - Брайтстоки, % об."|"Отношение общего кол-ва растворителя к сырью - Брайтстоки, % об."
"SOLVEX  "|"HN_FeedCap"|"Feed Capacity on Heavy Neutrals, b/sd"|"0"|"Feed Capacity on Heavy Neutrals, b/sd"|"0"|""|""|"0"|"G"|"50524"|"Производительность по сырью - Высоковязкий дистиллят, барр./потокодень"|"Производительность по сырью - Высоковязкий дистиллят, барр./потокодень"
"SOLVEX  "|"HN_OperPcnt"|"Unit Operation on Heavy Neutrals, %"|"1"|"Unit Operation on Heavy Neutrals, %"|"1"|""|""|"0"|"H"|"50534"|"% работы установки - Высоковязкий дистиллят"|"% работы установки - Высоковязкий дистиллят"
"SOLVEX  "|"HN_SolventRatio"|"Solvent-to-Oil Ratio on Heavy Neutrals"|"2"|"Solvent-to-Oil Ratio on Heavy Neutrals"|"2"|""|""|"0"|"I"|"50514"|"Отношение общего кол-ва растворителя к сырью - Высоковязкий дистиллят, % об."|"Отношение общего кол-ва растворителя к сырью - Высоковязкий дистиллят, % об."
"SOLVEX  "|"LN_FeedCap"|"Feed Capacity on Light Neutrals, b/sd"|"0"|"Feed Capacity on Light Neutrals, b/sd"|"0"|""|""|"0"|"A"|"50520"|"Производительность по сырью - Маловязкий дистиллят, барр./потокодень"|"Производительность по сырью - Маловязкий дистиллят, барр./потокодень"
"SOLVEX  "|"LN_OperPcnt"|"Unit Operation on Light Neutrals, %"|"1"|"Unit Operation on Light Neutrals, %"|"1"|""|""|"0"|"B"|"50530"|"% работы установки - Маловязкий дистиллят"|"% работы установки - Маловязкий дистиллят"
"SOLVEX  "|"LN_SolventRatio"|"Solvent-to-Oil Ratio on Light Neutrals"|"2"|"Solvent-to-Oil Ratio on Light Neutrals"|"2"|""|""|"0"|"C"|"50510"|"Отношение общего кол-ва растворителя к сырью - Маловязкий дистиллят, % об."|"Отношение общего кол-ва растворителя к сырью - Маловязкий дистиллят, % об."
"SOLVEX  "|"MN_FeedCap"|"Feed Capacity on Mild Neutrals, b/sd"|"0"|"Feed Capacity on Mild Neutrals, b/sd"|"0"|""|""|"0"|"D"|"50522"|"Производительность по сырью - Средневязкий дистиллят, барр./потокодень"|"Производительность по сырью - Средневязкий дистиллят, барр./потокодень"
"SOLVEX  "|"MN_OperPcnt"|"Unit Operation on Mild Neutrals, %"|"1"|"Unit Operation on Mild Neutrals, %"|"1"|""|""|"0"|"E"|"50532"|"% работы установки - Средневязкий дистиллят"|"% работы установки - Средневязкий дистиллят"
"SOLVEX  "|"MN_SolventRatio"|"Solvent-to-Oil Ratio on Mild Neutrals"|"2"|"Solvent-to-Oil Ratio on Mild Neutrals"|"2"|""|""|"0"|"F"|"50512"|"Отношение общего кол-ва растворителя к сырью - Средневязкий дистиллят, % об."|"Отношение общего кол-ва растворителя к сырью - Средневязкий дистиллят, % об."
"VAC     "|"BtmProdPcnt"|"Vacuum Bottoms Product, vol % of Feed"|"1"|"Vacuum Bottoms Product, vol % of Feed"|"1"|""|""|"0"|"B"|"12040"|"Кубовый продукт ВДУ, % об. от сырья"|"Кубовый продукт ВДУ, % об. от сырья"
"VAC     "|"FeedGravity"|"Gravity, °API"|"1"|"Density, kg/m3"|"0"|"API"|"KGM3"|"0"|"A"|"12010"|"Удельный вес, °API"|"Плотность, кг/м³"
"VAC     "|"FZPress"|"Flash Zone Pressure, mm Hg absolute"|"1"|"Flash Zone Pressure, mm Hg absolute"|"1"|""|""|"0"|"D"|"12030"|"Давление в зоне питания, мм рт. ст. абс."|"Давление в зоне питания, мм рт. ст. абс."
"VAC     "|"FZTemp"|"Flash Zone Temperature, °F"|"0"|"Flash Zone Temperature, °C"|"0"|"TF"|"TC"|"0"|"C"|"12020"|"Температура в зоне питания, °F"|"Температура в зоне питания, °C"
"VBR     "|"FeedGravity"|"Gravity, °API"|"1"|"Density, kg/m3"|"0"|"API"|"KGM3"|"0"|"A"|"13010"|"Удельный вес, °API"|"Плотность, кг/м³"
"WDOIL   "|"MicroWaxPcnt"|"Percent of Wax Yield that is Microcrystalline"|"1"|"Percent of Wax Yield that is Microcrystalline"|"1"|"%"|"%"|"255"|"B"|""|""|""
"WDOIL   "|"RefWaxPcnt"|"Percent of Wax Yield that is Refined"|"1"|"Percent of Wax Yield that is Refined"|"1"|"%"|"%"|"255"|"A"|""|""|""
"WDOIL   "|"W135_OperPcnt"|"Unit Operation on <135 °F Melting Point, %"|"1"|"Unit Operation on <57.2 °C Melting Point, %"|"1"|"%"|"%"|"0"|"D"|"60519"|""|""
"WDOIL   "|"W135_RefWaxCap"|"Capacity on <135 °F Melting Point, bs/d"|"0"|"Capacity on <57.2 °C Melting Point, bs/d"|"1"|"b/sd"|"b/sd"|"0"|"C"|"60510"|""|""
"WDOIL   "|"W160_OperPcnt"|"Unit Operation on 135-160 °F Melting Point, %"|"1"|"Unit Operation on 57.2-71.1 °C Melting Point, %"|"1"|"%"|"%"|"0"|"F"|"60529"|""|""
"WDOIL   "|"W160_RefWaxCap"|"Capacity on 135-160 °F Melting Point, bs/d"|"0"|"Capacity on 57.2-71.1 °C Melting Point, bs/d"|"0"|"b/sd"|"b/sd"|"0"|"E"|"60520"|""|""
"WDOIL   "|"W180_OperPcnt"|"Unit Operation on 160-180 °F Melting Point, %"|"1"|"Unit Operation on 71.1-82.2 °C Melting Point, %"|"1"|"%"|"%"|"0"|"H"|"60539"|""|""
"WDOIL   "|"W180_RefWaxCap"|"Capacity on 160-180 °F Melting Point, bs/d"|"0"|"Capacity on 71.1-82.2 °C Melting Point, bs/d"|"0"|"b/sd"|"b/sd"|"0"|"G"|"60530"|""|""
"WDOIL   "|"WBal_OperPcnt"|"Unit Operation on >180 °F Melting Point, %"|"1"|"Unit Operation on >82.2 °C Melting Point, %"|"1"|"%"|"%"|"0"|"J"|"60549"|""|""
"WDOIL   "|"WBal_RefWaxCap"|"Capacity on >180 °F Melting Point, bs/d"|"0"|"Capacity on >82.2 °C Melting Point, bs/d"|"0"|"b/sd"|"b/sd"|"0"|"I"|"60540"|""|""
"WHYFT   "|"ReactorPressure"|"Reactor Outlet Pressure, psig"|"1"|"Reactor Outlet Pressure, barg"|"1"|"PSIG"|"BARG"|"0"|"A"|"61510"|""|""
